<?xml version="1.0" encoding="UTF-8" standalone="no"?>
<!-- Created with Inkscape (http://www.inkscape.org/) -->

<svg
   xmlns:dc="http://purl.org/dc/elements/1.1/"
   xmlns:cc="http://creativecommons.org/ns#"
   xmlns:rdf="http://www.w3.org/1999/02/22-rdf-syntax-ns#"
   xmlns:svg="http://www.w3.org/2000/svg"
   xmlns="http://www.w3.org/2000/svg"
   xmlns:sodipodi="http://sodipodi.sourceforge.net/DTD/sodipodi-0.dtd"
   xmlns:inkscape="http://www.inkscape.org/namespaces/inkscape"
   width="100"
   height="100"
   viewBox="0 0 26.458333 26.458334"
   version="1.1"
   id="svg8"
   sodipodi:docname="edit.svg"
   inkscape:version="0.92.5 (2060ec1f9f, 2020-04-08)">
  <defs
     id="defs2" />
  <sodipodi:namedview
     id="base"
     pagecolor="#ffffff"
     bordercolor="#666666"
     borderopacity="1.0"
     inkscape:pageopacity="0.0"
     inkscape:pageshadow="2"
     inkscape:zoom="2"
     inkscape:cx="100.96711"
     inkscape:cy="85.918969"
     inkscape:document-units="mm"
     inkscape:current-layer="layer1"
     showgrid="false"
     units="px"
     inkscape:snap-page="true"
     inkscape:window-width="1920"
     inkscape:window-height="1057"
     inkscape:window-x="0"
     inkscape:window-y="0"
     inkscape:window-maximized="1"
     inkscape:snap-global="true"
     inkscape:snap-bbox="true"
     inkscape:bbox-nodes="true" />
  <metadata
     id="metadata5">
    <rdf:RDF>
      <cc:Work
         rdf:about="">
        <dc:format>image/svg+xml</dc:format>
        <dc:type
           rdf:resource="http://purl.org/dc/dcmitype/StillImage" />
        <dc:title></dc:title>
      </cc:Work>
    </rdf:RDF>
  </metadata>
  <g
     inkscape:label="Layer 1"
     inkscape:groupmode="layer"
     id="layer1"
     transform="translate(0,-270.54165)">
    <g
       id="g881"
       transform="matrix(-0.55535132,-0.55468722,0.55535132,-0.55468722,-79.980288,382.67183)"
       style="fill:#000000;fill-opacity:1">
      <rect
         ry="0"
         y="161.49434"
         x="0"
         height="21.18111"
         width="10.490329"
         id="rect837"
         style="fill:#000000;fill-opacity:1;stroke:none;stroke-width:2.79999995;stroke-linecap:round;stroke-linejoin:round;stroke-miterlimit:4;stroke-dasharray:none;stroke-dashoffset:0;stroke-opacity:1;paint-order:fill markers stroke" />
      <path
         transform="matrix(0.95905276,0,0,0.89056983,0.12857991,16.479496)"
         inkscape:transform-center-y="-1.3983818"
         inkscape:transform-center-x="-0.0095098857"
         d="m 10.80415,158.52263 -10.9382187,0.0344 5.4393616,-9.48995 z"
         inkscape:randomized="0"
         inkscape:rounded="0"
         inkscape:flatsided="true"
         sodipodi:arg2="1.567656"
         sodipodi:arg1="0.52045845"
         sodipodi:r2="3.1576073"
         sodipodi:r1="6.3152146"
         sodipodi:cy="155.38222"
         sodipodi:cx="5.3251247"
         sodipodi:sides="3"
         id="path839"
         style="fill:#000000;fill-opacity:1;stroke:none;stroke-width:2.79999995;stroke-linecap:round;stroke-linejoin:round;stroke-miterlimit:4;stroke-dasharray:none;stroke-dashoffset:0;stroke-opacity:1;paint-order:fill markers stroke"
         sodipodi:type="star" />
      <path
         transform="scale(0.26458333)"
         id="rect843"
         d="m 0,704.82227 v 7.57617 3.53515 5.30274 c 0,4.19718 3.3789882,7.57617 7.5761719,7.57617 H 32.072266 c 4.197183,0 7.576172,-3.37899 7.576172,-7.57617 v -5.30274 -3.53515 -7.57617 H 32.072266 7.5761719 Z"
         style="fill:#000000;fill-opacity:1;stroke:none;stroke-width:10.58267689;stroke-linecap:round;stroke-linejoin:round;stroke-miterlimit:4;stroke-dasharray:none;stroke-dashoffset:0;stroke-opacity:1;paint-order:fill markers stroke"
         inkscape:connector-curvature="0" />
    </g>
  </g>
</svg>
