<?xml version="1.0" encoding="UTF-8" standalone="no"?>
<!-- Created with Inkscape (http://www.inkscape.org/) -->

<svg
   xmlns:dc="http://purl.org/dc/elements/1.1/"
   xmlns:cc="http://creativecommons.org/ns#"
   xmlns:rdf="http://www.w3.org/1999/02/22-rdf-syntax-ns#"
   xmlns:svg="http://www.w3.org/2000/svg"
   xmlns="http://www.w3.org/2000/svg"
   xmlns:sodipodi="http://sodipodi.sourceforge.net/DTD/sodipodi-0.dtd"
   xmlns:inkscape="http://www.inkscape.org/namespaces/inkscape"
   width="100"
   height="100"
   viewBox="0 0 26.458333 26.458334"
   version="1.1"
   id="svg8"
   sodipodi:docname="reload.svg"
   inkscape:version="0.92.5 (2060ec1f9f, 2020-04-08)">
  <defs
     id="defs2" />
  <sodipodi:namedview
     id="base"
     pagecolor="#ffffff"
     bordercolor="#666666"
     borderopacity="1.0"
     inkscape:pageopacity="0.0"
     inkscape:pageshadow="2"
     inkscape:zoom="1.979899"
     inkscape:cx="12.308593"
     inkscape:cy="51.302412"
     inkscape:document-units="mm"
     inkscape:current-layer="layer1"
     showgrid="false"
     units="px"
     inkscape:snap-page="true"
     inkscape:window-width="1920"
     inkscape:window-height="1017"
     inkscape:window-x="0"
     inkscape:window-y="0"
     inkscape:window-maximized="1"
     inkscape:snap-global="true"
     inkscape:snap-bbox="true"
     inkscape:snap-bbox-edge-midpoints="true"
     inkscape:bbox-nodes="true"
     inkscape:bbox-paths="true"
     inkscape:snap-bbox-midpoints="true"
     inkscape:snap-object-midpoints="true" />
  <metadata
     id="metadata5">
    <rdf:RDF>
      <cc:Work
         rdf:about="">
        <dc:format>image/svg+xml</dc:format>
        <dc:type
           rdf:resource="http://purl.org/dc/dcmitype/StillImage" />
        <dc:title />
      </cc:Work>
    </rdf:RDF>
  </metadata>
  <g
     inkscape:label="Layer 1"
     inkscape:groupmode="layer"
     id="layer1"
     transform="translate(0,-270.54165)">
    <g
       id="g873"
       transform="matrix(0.22384909,-0.83541617,0.83541617,0.22384909,-236.30587,236.2926)">
      <g
         transform="matrix(0.94035205,0,0,1.0531943,0.1607744,-15.306124)"
         id="g4755" />
      <g
         style="fill:#000005;fill-opacity:1"
         transform="matrix(-0.46429833,-0.12440835,-0.16370342,0.61094951,72.147872,110.5489)"
         id="layer1-5-6-3"
         inkscape:label="Layer 1">
        <path
           inkscape:connector-curvature="0"
           id="path818-2-6"
           d="M 1.7723755,296.99998 V 270.54165 L 24.685958,283.77081 Z"
           inkscape:transform-center-y="-7.4379792e-06"
           inkscape:transform-center-x="-3.8189305"
           style="fill:#000005;fill-opacity:1;stroke:none;stroke-width:0.10233875;stroke-miterlimit:4;stroke-dasharray:none;stroke-opacity:1" />
      </g>
      <path
         style="opacity:1;fill:#0b0005;fill-opacity:1;stroke:none;stroke-width:1.11803138;stroke-linecap:round;stroke-linejoin:round;stroke-miterlimit:4;stroke-dasharray:none;stroke-dashoffset:0;stroke-opacity:1;paint-order:fill markers stroke"
         d="m 25.608683,281.00153 a 13.790921,13.806019 14.999997 0 0 -0.01477,-0.003 l -1.479649,5.52212 a 8.0893797,8.0893797 0 0 1 0.01477,0.003 8.0893797,8.0893797 0 0 1 5.720487,9.90736 8.0893797,8.0893797 0 0 1 -9.907765,5.71977 8.0893797,8.0893797 0 0 1 -5.719928,-9.9072 8.0893797,8.0893797 0 0 1 0.0094,-0.0286 L 8.7236021,290.7392 a 13.790921,13.806019 14.999997 0 0 -0.00887,0.0288 13.790921,13.806019 14.999997 0 0 9.7473349,16.90493 13.790921,13.806019 14.999997 0 0 16.894456,-9.7663 13.790921,13.806019 14.999997 0 0 -9.74789,-16.90509 z"
         id="path819"
         inkscape:connector-curvature="0" />
    </g>
  </g>
</svg>
